nl/jsprengers/caching/db/PostCode.class
nl/jsprengers/caching/db/PostcodeDao.class
nl/jsprengers/caching/CacheConfig.class
nl/jsprengers/caching/Application.class
nl/jsprengers/caching/RotatingValue.class
